alu.vcd
$date
  Fri Mar 20 16:17:45 2020
$end
$version
  GHDL v0
$end
$timescale
  1 fs
$end
$var reg 1 ! clk $end
$var reg 1 " rst $end
$var reg 16 # data_in1[15:0] $end
$var reg 16 $ data_in2[15:0] $end
$var reg 3 % alu_operation[2:0] $end
$var reg 1 & zero_flag $end
$var reg 16 ' alu_result[15:0] $end
$scope module test $end
$var reg 16 ( data_in1[15:0] $end
$var reg 16 ) data_in2[15:0] $end
$var reg 1 * clk $end
$var reg 1 + rst $end
$var reg 3 , alu_operation[2:0] $end
$var reg 1 - zero_flag $end
$var reg 16 . alu_result[15:0] $end
$upscope $end
$enddefinitions $end
#0
0!
0"
b0000000000000000 #
b0000000000000000 $
b000 %
U&
bUUUUUUUUUUUUUUUU '
b0000000000000000 (
b0000000000000000 )
0*
0+
b000 ,
U-
bUUUUUUUUUUUUUUUU .
#5000000
1!
0&
b0000000000000000 '
1*
0-
b0000000000000000 .
#10000000
0!
0*
#15000000
1!
b0000001100110000 #
b0000000000000001 $
b0000001100110001 '
b0000001100110000 (
b0000000000000001 )
1*
b0000001100110001 .
#20000000
0!
0*
#25000000
1!
1*
#30000000
0!
0*
#35000000
1!
b001 %
b0000001100101111 '
1*
b001 ,
b0000001100101111 .
#40000000
0!
0*
#45000000
1!
1*
#50000000
0!
0*
#55000000
1!
b000 %
b0000001100110001 '
1*
b000 ,
b0000001100110001 .
#60000000
0!
0*
#65000000
1!
1*
#70000000
0!
0*
#75000000
1!
b0000001100110000 $
b001 %
1&
b0000000000000000 '
b0000001100110000 )
1*
b001 ,
1-
b0000000000000000 .
#80000000
0!
0*
#85000000
1!
1*
#90000000
0!
0*
#95000000
1!
b0000001111111111 #
b0000000000000001 $
b010 %
0&
b0000000000000001 '
b0000001111111111 (
b0000000000000001 )
1*
b010 ,
0-
b0000000000000001 .
#100000000
0!
0*
#105000000
1!
1*
#110000000
0!
0*
#115000000
1!
b011 %
b0000001111111111 '
1*
b011 ,
b0000001111111111 .
#120000000
0!
0*
#125000000
1!
1*
#130000000
0!
0*
#135000000
1!
b0000001100110000 #
b010 %
1&
b0000000000000000 '
b0000001100110000 (
1*
b010 ,
1-
b0000000000000000 .
#140000000
0!
0*
#145000000
1!
1*
#150000000
0!
0*
#155000000
1!
b011 %
0&
b0000001100110001 '
1*
b011 ,
0-
b0000001100110001 .
#160000000
0!
0*
#165000000
1!
1*
#170000000
0!
0*
#175000000
1!
b0000000000000000 #
b100 %
1&
b0000000000000000 '
b0000000000000000 (
1*
b100 ,
1-
b0000000000000000 .
#180000000
0!
0*
#185000000
1!
1*
#190000000
0!
0*
#195000000
1!
b101 %
0&
b1111111111111111 '
1*
b101 ,
0-
b1111111111111111 .
#200000000
0!
0*
#205000000
1!
1*
#210000000
0!
0*
#215000000
1!
b0000000000000001 #
b100 %
b0000000000000001 '
b0000000000000001 (
1*
b100 ,
b0000000000000001 .
#220000000
0!
0*
#225000000
1!
1*
#230000000
0!
0*
#235000000
1!
b101 %
b0000000000000000 '
1*
b101 ,
b0000000000000000 .
#240000000
0!
0*
#245000000
1!
1*
#250000000
0!
0*
#255000000
1!
b0000000000000010 #
1&
b0000000000000001 '
b0000000000000010 (
1*
1-
b0000000000000001 .
#260000000
0!
0*
#265000000
1!
1*
#270000000
0!
0*
#275000000
1!
b0000000000000000 #
b110 %
0&
b0000000000000000 (
1*
b110 ,
0-
#280000000
0!
0*
#285000000
1!
1*
#290000000
0!
0*
#295000000
1!
b111 %
1&
1*
b111 ,
1-
#300000000
0!
0*
#305000000
1!
1*
#310000000
0!
0*
#315000000
1!
b0000000000000001 #
b110 %
b0000000000000010 '
b0000000000000001 (
1*
b110 ,
b0000000000000010 .
#320000000
0!
0*
#325000000
1!
1*
#330000000
0!
0*
#335000000
1!
b111 %
0&
1*
b111 ,
0-
#340000000
0!
0*
#345000000
1!
1*
#350000000
0!
0*
#355000000
1!
b0000000000000000 $
b110 %
1&
b0000000000000001 '
b0000000000000000 )
1*
b110 ,
1-
b0000000000000001 .
#360000000
0!
0*
#365000000
1!
1*
#370000000
0!
0*
#375000000
1!
b111 %
0&
1*
b111 ,
0-
