cont.vcd
$date
  Fri Mar 20 15:20:39 2020
$end
$version
  GHDL v0
$end
$timescale
  1 fs
$end
$var reg 1 ! clk $end
$var reg 4 " op_code[3:0] $end
$var reg 1 # mem_toreg $end
$var reg 1 $ branch $end
$var reg 1 % mem_read $end
$var reg 1 & mem_write $end
$var reg 1 ' immediate $end
$var reg 1 ( reg_write $end
$var reg 3 ) alu_op[2:0] $end
$scope module test $end
$var reg 1 * clk $end
$var reg 4 + op_code[3:0] $end
$var reg 1 , mem_toreg $end
$var reg 1 - branch $end
$var reg 1 . mem_read $end
$var reg 1 / mem_write $end
$var reg 1 0 immediate $end
$var reg 1 1 reg_write $end
$var reg 3 2 alu_op[2:0] $end
$upscope $end
$enddefinitions $end
#0
0!
b0000 "
U#
U$
U%
U&
U'
U(
bUUU )
0*
b0000 +
U,
U-
U.
U/
U0
U1
bUUU 2
#5000000
1!
0#
1$
0%
0&
1'
0(
b001 )
1*
0,
1-
0.
0/
10
01
b001 2
#10000000
0!
0*
#15000000
1!
1*
#20000000
0!
0*
#25000000
1!
1*
#30000000
0!
b0001 "
0*
b0001 +
#35000000
1!
1#
0$
0'
1(
b000 )
1*
1,
0-
00
11
b000 2
#40000000
0!
0*
#45000000
1!
1*
#50000000
0!
b0010 "
0*
b0010 +
#55000000
1!
b001 )
1*
b001 2
#60000000
0!
0*
#65000000
1!
1*
#70000000
0!
b0011 "
0*
b0011 +
#75000000
1!
1%
0(
b000 )
1*
1.
01
b000 2
#80000000
0!
0*
#85000000
1!
1*
#90000000
0!
b0100 "
0*
b0100 +
#95000000
1!
0#
0%
1&
1*
0,
0.
1/
#100000000
0!
0*
#105000000
1!
1*
#110000000
0!
b0101 "
0*
b0101 +
#115000000
1!
1#
0&
1(
b010 )
1*
1,
0/
11
b010 2
#120000000
0!
0*
#125000000
1!
1*
#130000000
0!
b0110 "
0*
b0110 +
#135000000
1!
b011 )
1*
b011 2
#140000000
0!
0*
#145000000
1!
1*
#150000000
0!
b0111 "
0*
b0111 +
#155000000
1!
0#
1$
b001 )
1*
0,
1-
b001 2
#160000000
0!
0*
#165000000
1!
1*
#170000000
0!
b1000 "
0*
b1000 +
#175000000
1!
b100 )
1*
b100 2
#180000000
0!
0*
#185000000
1!
1*
#190000000
0!
b1001 "
0*
b1001 +
#195000000
1!
b101 )
1*
b101 2
#200000000
0!
0*
#205000000
1!
1*
#210000000
0!
b1010 "
0*
b1010 +
#215000000
1!
b110 )
1*
b110 2
#220000000
0!
0*
#225000000
1!
1*
#230000000
0!
b1011 "
0*
b1011 +
#235000000
1!
b111 )
1*
b111 2
#240000000
0!
0*
#245000000
1!
1*
#250000000
0!
b1100 "
0*
b1100 +
#255000000
1!
0$
1'
b001 )
1*
0-
10
b001 2
#260000000
0!
0*
#265000000
1!
1*
#270000000
0!
b1101 "
0*
b1101 +
#275000000
1!
1$
0(
b100 )
1*
1-
01
b100 2
#280000000
0!
0*
#285000000
1!
1*
#290000000
0!
b1110 "
0*
b1110 +
#295000000
1!
0$
1&
0'
b000 )
1*
0-
1/
00
b000 2
#300000000
0!
0*
#305000000
1!
1*
#310000000
0!
b1111 "
0*
b1111 +
#315000000
1!
1#
1%
0&
1'
1(
1*
1,
1.
0/
10
11
